﻿Number of tests

Number of Text value pair
keys : value

----------------------------------------------------------------
example: with two test cases
================================================================
2
2
FirstName : vishal
LastName : chaudhary
1
FirstName : vishal 


